{"name":"test002","id":"in.reqres.userinfo.UserCURDTestWithSteps:test002","testCaseName":"in.reqres.userinfo.UserCURDTestWithSteps","testSteps":[{"number":1,"description":"Getting the user information with firstName: Michael","duration":859,"startTime":"2022-06-04T23:34:38.258+01:00[Europe/London]","result":"SUCCESS","precondition":false,"children":[{"number":2,"description":"GET https://reqres.in/api/users?page\u003d2\r\r","duration":0,"startTime":"2022-06-04T23:34:38.563+01:00[Europe/London]","result":"SUCCESS","restQuery":{"method":"GET","path":"https://reqres.in/api/users?page\u003d2\r\r","content":"\r","contentType":"null","requestHeaders":"Accept\u003d*/*\r\r","requestCookies":"\r\r","responseHeaders":"Date: Sat, 04 Jun 2022 22:34:39 GMT\nContent-Type: application/json; charset\u003dutf-8\nTransfer-Encoding: chunked\nConnection: keep-alive\nX-Powered-By: Express\nAccess-Control-Allow-Origin: *\nEtag: W/\"406-ut0vzoCuidvyMf8arZpMpJ6ZRDw\"\nVia: 1.1 vegur\nCache-Control: max-age\u003d14400\nCF-Cache-Status: HIT\nAge: 5800\nExpect-CT: max-age\u003d604800, report-uri\u003d\"https://report-uri.cloudflare.com/cdn-cgi/beacon/expect-ct\"\nReport-To: {\"endpoints\":[{\"url\":\"https:\\/\\/a.nel.cloudflare.com\\/report\\/v3?s\u003dPTF0Y%2BrV%2Bi%2B9DIDzUXa6u%2FAkXQ7E4WG7kJdHz9ny3p3FHsHOEc2lQw9XAI9MjvUwXqa9z6hbV8WsullE2VJxu8YNBtRz9OcVS6OKWFNMGh3ZZfB1w2ji2xaHVjI%3D\"}],\"group\":\"cf-nel\",\"max_age\":604800}\nNEL: {\"success_fraction\":0,\"report_to\":\"cf-nel\",\"max_age\":604800}\nVary: Accept-Encoding\nServer: cloudflare\nCF-RAY: 7164231b2e3c718c-LHR\nContent-Encoding: gzip\nalt-svc: h3\u003d\":443\"; ma\u003d86400, h3-29\u003d\":443\"; ma\u003d86400\r","responseCookies":"\r","responseBody":"{\n    \"page\": 2,\n    \"per_page\": 6,\n    \"total\": 12,\n    \"total_pages\": 2,\n    \"data\": [\n        {\n            \"id\": 7,\n            \"email\": \"michael.lawson@reqres.in\",\n            \"first_name\": \"Michael\",\n            \"last_name\": \"Lawson\",\n            \"avatar\": \"https://reqres.in/img/faces/7-image.jpg\"\n        },\n        {\n            \"id\": 8,\n            \"email\": \"lindsay.ferguson@reqres.in\",\n            \"first_name\": \"Lindsay\",\n            \"last_name\": \"Ferguson\",\n            \"avatar\": \"https://reqres.in/img/faces/8-image.jpg\"\n        },\n        {\n            \"id\": 9,\n            \"email\": \"tobias.funke@reqres.in\",\n            \"first_name\": \"Tobias\",\n            \"last_name\": \"Funke\",\n            \"avatar\": \"https://reqres.in/img/faces/9-image.jpg\"\n        },\n        {\n            \"id\": 10,\n            \"email\": \"byron.fields@reqres.in\",\n            \"first_name\": \"Byron\",\n            \"last_name\": \"Fields\",\n            \"avatar\": \"https://reqres.in/img/faces/10-image.jpg\"\n        },\n        {\n            \"id\": 11,\n            \"email\": \"george.edwards@reqres.in\",\n            \"first_name\": \"George\",\n            \"last_name\": \"Edwards\",\n            \"avatar\": \"https://reqres.in/img/faces/11-image.jpg\"\n        },\n        {\n            \"id\": 12,\n            \"email\": \"rachel.howell@reqres.in\",\n            \"first_name\": \"Rachel\",\n            \"last_name\": \"Howell\",\n            \"avatar\": \"https://reqres.in/img/faces/12-image.jpg\"\n        }\n    ],\n    \"support\": {\n        \"url\": \"https://reqres.in/#support-heading\",\n        \"text\": \"To keep ReqRes free, contributions towards server costs are appreciated!\"\n    }\n}","statusCode":200},"precondition":false}]}],"userStory":{"id":"in.reqres.userinfo.UserCURDTestWithSteps","storyName":"User CURD test with steps","storyClassName":"in.reqres.userinfo.UserCURDTestWithSteps","path":"in.reqres.userinfo","type":"story"},"featureTag":{"name":"Userinfo/User CURD test with steps","type":"story"},"title":"Verify if the user was added to the application","tags":[{"name":"Userinfo/User CURD test with steps","type":"story"}],"startTime":"2022-06-04T23:34:38.255+01:00[Europe/London]","duration":866,"projectKey":"","manual":false,"testSource":"JUnit","result":"SUCCESS"}